{
	"info": {
		"_postman_id": "45cb95dc-bfcc-409a-9c26-84070e6504be",
		"name": "App",
		"schema": "https://schema.getpostman.com/json/collection/v2.1.0/collection.json"
	},
	"item": [
		{
			"name": "api/auth",
			"item": [
				{
					"name": "register New User",
					"request": {
						"method": "POST",
						"header": [],
						"body": {
							"mode": "raw",
							"raw": "{\n    \"email\": \"temp1@testmail.com\",\n    \"firstName\": \"Lorem\",\n    \"lastName\": \"Impus\",\n    \"password\": \"passw0rd\",\n    \"phoneNumber\": \"5554443322\"\n}",
							"options": {
								"raw": {
									"language": "json"
								}
							}
						},
						"url": {
							"raw": "{{authBase}}/api/auth/signup",
							"host": [
								"{{authBase}}"
							],
							"path": [
								"api",
								"auth",
								"signup"
							]
						}
					},
					"response": []
				},
				{
					"name": "get User Token",
					"event": [
						{
							"listen": "test",
							"script": {
								"exec": [
									"pm.test('Status Code is 200', function () {",
									"    pm.response.to.have.status(200)",
									"})",
									"",
									"pm.test('Body matches string', function () {",
									"    pm.expect(pm.response.text()).to.include(\"access_token\")",
									"})",
									"",
									"let response = pm.response.json()",
									"let accessToken = response.access_token",
									"pm.environment.set(\"accessToken\",accessToken)"
								],
								"type": "text/javascript"
							}
						}
					],
					"request": {
						"auth": {
							"type": "bearer",
							"bearer": [
								{
									"key": "token",
									"value": "{{accessToken}}",
									"type": "string"
								}
							]
						},
						"method": "POST",
						"header": [],
						"body": {
							"mode": "urlencoded",
							"urlencoded": [
								{
									"key": "grant_type",
									"value": "password",
									"type": "text"
								},
								{
									"key": "username",
									"value": "temp1@testmail.com",
									"type": "text"
								},
								{
									"key": "password",
									"value": "passw0rd",
									"type": "text"
								},
								{
									"key": "client_id",
									"value": "client_user",
									"type": "text"
								},
								{
									"key": "client_secret",
									"value": "passw0rd",
									"type": "text"
								}
							]
						},
						"url": {
							"raw": "{{authBase}}/oauth/token",
							"host": [
								"{{authBase}}"
							],
							"path": [
								"oauth",
								"token"
							]
						}
					},
					"response": []
				},
				{
					"name": "get Admin Token",
					"event": [
						{
							"listen": "test",
							"script": {
								"exec": [
									"pm.test('Status Code is 200', function () {",
									"    pm.response.to.have.status(200)",
									"})",
									"",
									"pm.test('Body matches string', function () {",
									"    pm.expect(pm.response.text()).to.include(\"access_token\")",
									"})",
									"",
									"let response = pm.response.json()",
									"let accessToken = response.access_token",
									"pm.environment.set(\"accessToken\",accessToken)"
								],
								"type": "text/javascript"
							}
						}
					],
					"request": {
						"auth": {
							"type": "bearer",
							"bearer": [
								{
									"key": "token",
									"value": "{{accessToken}}",
									"type": "string"
								}
							]
						},
						"method": "POST",
						"header": [],
						"body": {
							"mode": "urlencoded",
							"urlencoded": [
								{
									"key": "grant_type",
									"value": "password",
									"type": "text"
								},
								{
									"key": "username",
									"value": "admin@testmail.com",
									"type": "text"
								},
								{
									"key": "password",
									"value": "passw0rd",
									"type": "text"
								},
								{
									"key": "client_id",
									"value": "client_user",
									"type": "text"
								},
								{
									"key": "client_secret",
									"value": "passw0rd",
									"type": "text"
								}
							]
						},
						"url": {
							"raw": "{{authBase}}/oauth/token",
							"host": [
								"{{authBase}}"
							],
							"path": [
								"oauth",
								"token"
							]
						}
					},
					"response": []
				}
			]
		},
		{
			"name": "api/customer",
			"item": [
				{
					"name": "{id}",
					"item": [
						{
							"name": "get Customer By Id",
							"request": {
								"auth": {
									"type": "bearer",
									"bearer": [
										{
											"key": "token",
											"value": "{{accessToken}}",
											"type": "string"
										}
									]
								},
								"method": "GET",
								"header": [],
								"url": {
									"raw": "{{customerBase}}/api/customer/:id",
									"host": [
										"{{customerBase}}"
									],
									"path": [
										"api",
										"customer",
										":id"
									],
									"variable": [
										{
											"key": "id",
											"value": ""
										}
									]
								}
							},
							"response": []
						},
						{
							"name": "update Item",
							"request": {
								"method": "PUT",
								"header": [
									{
										"key": "Content-Type",
										"value": "application/json"
									}
								],
								"body": {
									"mode": "raw",
									"raw": "{\n    \"id\": \"nostrud sit non dolor\",\n    \"firstName\": \"ipsum quis exercitation ea\",\n    \"lastName\": \"nulla magna veniam sunt\",\n    \"phoneNumber\": \"Lorem laborum aute\",\n    \"email\": \"laborum\",\n    \"address\": {\n        \"addressLine1\": \"deserunt et proident ea\",\n        \"addressLine2\": \"cupidatat in magna eiusmod consequat\",\n        \"city\": \"quis do\",\n        \"state\": \"ut deserunt esse\",\n        \"zipCode\": -24412408,\n        \"country\": \"laboris ex\"\n    },\n    \"creditLimit\": -71595654.35880011\n}",
									"options": {
										"raw": {
											"language": "json"
										}
									}
								},
								"url": {
									"raw": "{{customerBase}}/api/customer/+id",
									"host": [
										"{{customerBase}}"
									],
									"path": [
										"api",
										"customer",
										"+id"
									]
								}
							},
							"response": []
						},
						{
							"name": "update Item Address",
							"request": {
								"method": "PUT",
								"header": [
									{
										"key": "Content-Type",
										"value": "application/json"
									}
								],
								"body": {
									"mode": "raw",
									"raw": "{\n  \"addressLine1\": \"Lorem ipsum dolor sit amet, consectetur adipiscing elit. \",\n  \"addressLine2\": \"Fusce nisi erat, mollis quis tincidunt eget, sodales in tellus.\",\n  \"city\": \"Donec\",\n  \"state\": \"Facilisis\",\n  \"zipCode\": 12345,\n  \"country\": \"Turkey\"\n}",
									"options": {
										"raw": {
											"language": "json"
										}
									}
								},
								"url": {
									"raw": "{{customerBase}}/api/customer/+id/address",
									"host": [
										"{{customerBase}}"
									],
									"path": [
										"api",
										"customer",
										"+id",
										"address"
									]
								}
							},
							"response": []
						},
						{
							"name": "delete Item",
							"request": {
								"auth": {
									"type": "bearer",
									"bearer": [
										{
											"key": "token",
											"value": "{{accessToken}}",
											"type": "string"
										}
									]
								},
								"method": "DELETE",
								"header": [],
								"url": {
									"raw": "{{customerBase}}/api/customer/:id",
									"host": [
										"{{customerBase}}"
									],
									"path": [
										"api",
										"customer",
										":id"
									],
									"variable": [
										{
											"key": "id",
											"value": ""
										}
									]
								}
							},
							"response": []
						}
					]
				},
				{
					"name": "get All Customer",
					"request": {
						"auth": {
							"type": "bearer",
							"bearer": [
								{
									"key": "token",
									"value": "{{accessToken}}",
									"type": "string"
								}
							]
						},
						"method": "GET",
						"header": [],
						"url": {
							"raw": "{{customerBase}}/api/customer/",
							"host": [
								"{{customerBase}}"
							],
							"path": [
								"api",
								"customer",
								""
							]
						}
					},
					"response": []
				},
				{
					"name": "get Current Customer",
					"request": {
						"auth": {
							"type": "bearer",
							"bearer": [
								{
									"key": "token",
									"value": "{{accessToken}}",
									"type": "string"
								}
							]
						},
						"method": "GET",
						"header": [],
						"url": {
							"raw": "{{customerBase}}/api/customer/me",
							"host": [
								"{{customerBase}}"
							],
							"path": [
								"api",
								"customer",
								"me"
							]
						}
					},
					"response": []
				},
				{
					"name": "create Item",
					"request": {
						"auth": {
							"type": "bearer",
							"bearer": [
								{
									"key": "token",
									"value": "{{accessToken}}",
									"type": "string"
								}
							]
						},
						"method": "POST",
						"header": [
							{
								"key": "Content-Type",
								"value": "application/json"
							}
						],
						"body": {
							"mode": "raw",
							"raw": "{\n    \"id\": \"do\",\n    \"firstName\": \"id exercitation\",\n    \"lastName\": \"voluptate ni\",\n    \"phoneNumber\": \"ip\",\n    \"email\": \"eiusmod ea consectetur\",\n    \"address\": {\n        \"addressLine1\": \"aliquip nulla Lorem\",\n        \"addressLine2\": \"magna est Ut\",\n        \"city\": \"in sit sint eiusmod adipisic\",\n        \"state\": \"adipisicing Duis\",\n        \"zipCode\": 53482410,\n        \"country\": \"culpa magna\"\n    },\n    \"creditLimit\": -55678706.03231109,\n    \"version\": 66138620,\n    \"createdBy\": \"amet laborum ea dolor\",\n    \"createdDate\": \"1990-10-18T04:23:16.891Z\",\n    \"updatedBy\": \"sint velit\",\n    \"updatedDate\": \"1970-02-22T03:51:26.115Z\"\n}",
							"options": {
								"raw": {
									"language": "json"
								}
							}
						},
						"url": {
							"raw": "{{customerBase}}/api/customer/",
							"host": [
								"{{customerBase}}"
							],
							"path": [
								"api",
								"customer",
								""
							]
						}
					},
					"response": []
				}
			]
		},
		{
			"name": "api/product",
			"item": [
				{
					"name": "get All Product",
					"request": {
						"auth": {
							"type": "bearer",
							"bearer": [
								{
									"key": "token",
									"value": "{{accessToken}}",
									"type": "string"
								}
							]
						},
						"method": "GET",
						"header": [],
						"url": {
							"raw": "{{productBase}}/api/product/getAllProduct",
							"host": [
								"{{productBase}}"
							],
							"path": [
								"api",
								"product",
								"getAllProduct"
							]
						}
					},
					"response": []
				},
				{
					"name": "get Product By Id",
					"request": {
						"auth": {
							"type": "bearer",
							"bearer": [
								{
									"key": "token",
									"value": "{{accessToken}}",
									"type": "string"
								}
							]
						},
						"method": "GET",
						"header": [],
						"url": {
							"raw": "{{productBase}}/api/product/getProduct/:id",
							"host": [
								"{{productBase}}"
							],
							"path": [
								"api",
								"product",
								"getProduct",
								":id"
							],
							"variable": [
								{
									"key": "id",
									"value": "commodo amet non sunt",
									"description": "(Required) "
								}
							]
						}
					},
					"response": []
				},
				{
					"name": "update Product",
					"request": {
						"auth": {
							"type": "bearer",
							"bearer": [
								{
									"key": "token",
									"value": "{{accessToken}}",
									"type": "string"
								}
							]
						},
						"method": "PUT",
						"header": [
							{
								"key": "Content-Type",
								"value": "application/json"
							}
						],
						"body": {
							"mode": "raw",
							"raw": "{\n    \"producId\": \"reprehenderit dolor\",\n    \"productName\": \"Lorem ullamco\",\n    \"productDesc\": \"occaecat dolore in labore laborum\",\n    \"qtyInStock\": 52876079,\n    \"prodCategory\": \"mollit nisi in\",\n    \"price\": \"ut dolor\",\n    \"prodManufacturer\": \"sint dolore laborum ut consectetur\",\n    \"prodMfgDate\": \"nisi\",\n    \"version\": \"sunt aliquip voluptate\",\n    \"vendor\": \"ad pariatur ullamco sit\",\n    \"createdBy\": \"ipsum\",\n    \"createdDate\": \"veniam ea aliquip esse ad\",\n    \"updatedBy\": \"aliqua proident deserunt in\",\n    \"updatedDate\": \"minim aliqua aliquip pariatur\"\n}",
							"options": {
								"raw": {
									"language": "json"
								}
							}
						},
						"url": {
							"raw": "{{productBase}}/api/product/updateProduct/:id",
							"host": [
								"{{productBase}}"
							],
							"path": [
								"api",
								"product",
								"updateProduct",
								":id"
							],
							"variable": [
								{
									"key": "id",
									"value": "commodo amet non sunt",
									"description": "(Required) "
								}
							]
						}
					},
					"response": []
				},
				{
					"name": "delete Product",
					"request": {
						"auth": {
							"type": "bearer",
							"bearer": [
								{
									"key": "token",
									"value": "{{accessToken}}",
									"type": "string"
								}
							]
						},
						"method": "DELETE",
						"header": [],
						"url": {
							"raw": "{{productBase}}/api/product/deleteProduct/:id",
							"host": [
								"{{productBase}}"
							],
							"path": [
								"api",
								"product",
								"deleteProduct",
								":id"
							],
							"variable": [
								{
									"key": "id",
									"value": "commodo amet non sunt",
									"description": "(Required) "
								}
							]
						}
					},
					"response": []
				},
				{
					"name": "add Product",
					"request": {
						"auth": {
							"type": "bearer",
							"bearer": [
								{
									"key": "token",
									"value": "{{accessToken}}",
									"type": "string"
								}
							]
						},
						"method": "POST",
						"header": [
							{
								"key": "Content-Type",
								"value": "application/json"
							}
						],
						"body": {
							"mode": "raw",
							"raw": "{\n    \"productName\": \"Saatleri Ayarlama Enstitüsü\",\n    \"productDesc\": \"İmparatorluktan cumhuriyete geçiş döneminde Türkiye’nin yetiştirdiği en büyük şair ve yazarlardan olan Ahmet Hamdi Tanpınar’ın Saatleri Ayarlama Enstitüsü adlı eseri, modern Türk romanının kilometre taşları arasında yer alıyor. Yazarın büyük ses getiren Huzur adlı yapıtından sonra ikinci romanı olan Saatleri Ayarlama Enstitüsü, dönem Türkiye’sinin bir yansıması olarak günümüzde de edebi ve tarihi değerini koruyor.\",\n    \"qtyInStock\": 10,\n    \"prodCategory\": \"Edebiyat \",\n    \"price\": \"12\",\n    \"prodManufacturer\": \"Dergah Yayınları\",\n    \"prodMfgDate\": \"2015\",\n    \"vendor\": \"Dergah Yayınları\",\n    \"createdBy\": \"ADMIN\",\n    \"createdDate\": \"2021-11-24T21:10:28.807Z\"\n}",
							"options": {
								"raw": {
									"language": "json"
								}
							}
						},
						"url": {
							"raw": "{{productBase}}/api/product/addProduct",
							"host": [
								"{{productBase}}"
							],
							"path": [
								"api",
								"product",
								"addProduct"
							]
						}
					},
					"response": []
				}
			]
		},
		{
			"name": "api/order",
			"item": [
				{
					"name": "get All Order",
					"request": {
						"auth": {
							"type": "bearer",
							"bearer": [
								{
									"key": "token",
									"value": "{{accessToken}}",
									"type": "string"
								}
							]
						},
						"method": "GET",
						"header": [],
						"url": {
							"raw": "{{orderBase}}/api/order/getAllOrder",
							"host": [
								"{{orderBase}}"
							],
							"path": [
								"api",
								"order",
								"getAllOrder"
							]
						}
					},
					"response": []
				},
				{
					"name": "get Order By Id",
					"request": {
						"auth": {
							"type": "bearer",
							"bearer": [
								{
									"key": "token",
									"value": "{{accessToken}}",
									"type": "string"
								}
							]
						},
						"method": "GET",
						"header": [],
						"url": {
							"raw": "{{orderBase}}/api/order/getOrder/:id",
							"host": [
								"{{orderBase}}"
							],
							"path": [
								"api",
								"order",
								"getOrder",
								":id"
							],
							"variable": [
								{
									"key": "id",
									"value": "esse consequat reprehenderit irure",
									"description": "(Required) "
								}
							]
						}
					},
					"response": []
				},
				{
					"name": "delete Order",
					"request": {
						"auth": {
							"type": "bearer",
							"bearer": [
								{
									"key": "token",
									"value": "{{accessToken}}",
									"type": "string"
								}
							]
						},
						"method": "DELETE",
						"header": [],
						"url": {
							"raw": "{{orderBase}}/api/order/deleteOrder/:id",
							"host": [
								"{{orderBase}}"
							],
							"path": [
								"api",
								"order",
								"deleteOrder",
								":id"
							],
							"variable": [
								{
									"key": "id",
									"value": "esse consequat reprehenderit irure",
									"description": "(Required) "
								}
							]
						}
					},
					"response": []
				},
				{
					"name": "update Order",
					"request": {
						"auth": {
							"type": "bearer",
							"bearer": [
								{
									"key": "token",
									"value": "{{accessToken}}",
									"type": "string"
								}
							]
						},
						"method": "PUT",
						"header": [
							{
								"key": "Content-Type",
								"value": "application/json"
							}
						],
						"body": {
							"mode": "raw",
							"raw": "{\n    \"orderId\": \"aliqua irure est incididunt\",\n    \"customerId\": \"enim Duis fugiat voluptate nulla\",\n    \"createdDate\": \"id sint nostru\",\n    \"updatedDate\": \"Lorem t\",\n    \"orderAmount\": 90740359.32317951,\n    \"status\": \"dolor non\",\n    \"invoiceNumber\": \"anim eu\",\n    \"createdBy\": \"nulla ad\",\n    \"updatedBy\": \"sunt voluptate occaecat\",\n    \"version\": \"aute \",\n    \"product\": {\n        \"productId\": \"in ad\",\n        \"productCount\": -70142941\n    },\n    \"shippingAddress\": {\n        \"shippingFirstName\": \"et Exce\",\n        \"shippingLastName\": \"in\",\n        \"addressLine1\": \"sint nostrud aliqua eiusmod exercitation\",\n        \"addressLine2\": \"ex nisi veniam sit\",\n        \"city\": \"dolor Excepteur nisi\",\n        \"state\": \"ut nostrud qui dolore\",\n        \"zipCode\": -57075944,\n        \"country\": \"sed qui\"\n    },\n    \"billingAddress\": {\n        \"billingFirstName\": \"anim voluptate\",\n        \"billingLastName\": \"nisi veniam\",\n        \"addressLine1\": \"ex consequat\",\n        \"addressLine2\": \"non velit\",\n        \"city\": \"et\",\n        \"state\": \"quis cillum irure ad\",\n        \"zipCode\": 63013256,\n        \"country\": \"tempor Excepteur deserunt\"\n    }\n}",
							"options": {
								"raw": {
									"language": "json"
								}
							}
						},
						"url": {
							"raw": "{{orderBase}}/api/order/updateOrder/:id",
							"host": [
								"{{orderBase}}"
							],
							"path": [
								"api",
								"order",
								"updateOrder",
								":id"
							],
							"variable": [
								{
									"key": "id",
									"value": ""
								}
							]
						}
					},
					"response": []
				},
				{
					"name": "create Order",
					"request": {
						"auth": {
							"type": "bearer",
							"bearer": [
								{
									"key": "token",
									"value": "{{accessToken}}",
									"type": "string"
								}
							]
						},
						"method": "POST",
						"header": [
							{
								"key": "Content-Type",
								"value": "application/json"
							}
						],
						"body": {
							"mode": "raw",
							"raw": "{\n    \"customerId\": \"619f507ed311295187730aaf\",\n    \"createdDate\": \"2021-11-24T21:10:28.807Z\",\n    \"orderAmount\": 10,\n    \"status\": \"Created\",\n    \"createdBy\": \"User\",\n    \"product\": {\n        \"productId\": \"619f3cd2143db40282ee4bdc\",\n        \"productCount\": 1 \n    },\n    \"shippingAddress\": {\n        \"shippingFirstName\": \"et Exce\",\n        \"shippingLastName\": \"in\",\n        \"addressLine1\": \"sint nostrud aliqua eiusmod exercitation\",\n        \"addressLine2\": \"ex nisi veniam sit\",\n        \"city\": \"dolor Excepteur nisi\",\n        \"state\": \"ut nostrud qui dolore\",\n        \"zipCode\": -57075944,\n        \"country\": \"sed qui\"\n    },\n    \"billingAddress\": {\n        \"billingFirstName\": \"anim voluptate\",\n        \"billingLastName\": \"nisi veniam\",\n        \"addressLine1\": \"ex consequat\",\n        \"addressLine2\": \"non velit\",\n        \"city\": \"et\",\n        \"state\": \"quis cillum irure ad\",\n        \"zipCode\": 63013256,\n        \"country\": \"tempor Excepteur deserunt\"\n    }\n}",
							"options": {
								"raw": {
									"language": "json"
								}
							}
						},
						"url": {
							"raw": "{{orderBase}}/api/order/createOrder",
							"host": [
								"{{orderBase}}"
							],
							"path": [
								"api",
								"order",
								"createOrder"
							]
						}
					},
					"response": []
				}
			]
		}
	]
}